<svg xmlns="http://www.w3.org/2000/svg" width="253.5" height="253.5" viewBox="0 0 253.5 253.5">
  <g id="Ellipse_24" data-name="Ellipse 24" transform="translate(-664.856 -336.27)">
    <path id="Tracé_369" data-name="Tracé 369" d="M791.606,336.52a126.5,126.5,0,1,0,126.5,126.5A126.5,126.5,0,0,0,791.606,336.52ZM717.6,513.638m170.705-21.31" transform="translate(0 0)" fill="none" stroke="#51bda9" stroke-width="0.5" stroke-dasharray="4"/>
    <path id="Tracé_370" data-name="Tracé 370" d="M725.381,366.994a116.6,116.6,0,1,0,182.713,99.428m-190.48,47.207M888.288,492.3" fill="none" stroke="#1a7796" stroke-width="10"/>
    <path id="Tracé_371" data-name="Tracé 371" d="M890.569,492.905a103.333,103.333,0,1,0-133.852,67.561" transform="translate(0 0)" fill="none" stroke="#51bda9" stroke-width="5"/>
    <path id="Tracé_372" data-name="Tracé 372" d="M719.2,512.8a88.537,88.537,0,0,0,72.668,37.77c48.878,0,88.5-39.4,88.5-88a87.284,87.284,0,0,0-17.694-52.8" transform="translate(-0.312 0.592)" fill="none" stroke="#2e3e4e" stroke-width="10"/>
  </g>
</svg>
