<svg xmlns="http://www.w3.org/2000/svg" width="253.5" height="253.5" viewBox="0 0 253.5 253.5">
  <g id="Ellipse_24" data-name="Ellipse 24" transform="translate(-353.145 -298.22)">
    <path id="Tracé_365" data-name="Tracé 365" d="M479.894,298.47a126.5,126.5,0,1,0,126.5,126.5A126.5,126.5,0,0,0,479.894,298.47ZM566.625,422.3" fill="none" stroke="#51bda9" stroke-width="0.5" stroke-dasharray="4"/>
    <path id="Tracé_366" data-name="Tracé 366" d="M536.327,527.06a116.57,116.57,0,1,0-150.258-32.876M566.61,422.328" fill="none" stroke="#2e3e4e" stroke-width="5"/>
    <path id="Tracé_367" data-name="Tracé 367" d="M403.737,354.889a102.475,102.475,0,0,0-27.183,69.631c0,56.9,46.267,103.022,103.341,103.022S583.236,481.417,583.236,424.52a102.669,102.669,0,0,0-36.9-78.9m20.244,76.236" transform="translate(0 0.9)" fill="none" stroke="#d37806" stroke-width="10"/>
    <path id="Tracé_368" data-name="Tracé 368" d="M488.631,336.951q-4.312-.424-8.737-.431a88.45,88.45,0,1,0,88.234,88.45c0-.969-.033-1.93-.063-2.892" transform="translate(0)" fill="none" stroke="#1a7796" stroke-width="10"/>
  </g>
</svg>
